{
    "@class": "com.kony.gen.viz.model.component.KVizUserWidget",
    "DNDConfig": null,
    "__parentReadjusting__": false,
    "_children_": [],
    "_height_": {
        "type": "ref",
        "value": "preferred"
    },
    "_left_": {
        "type": "string",
        "value": ""
    },
    "_margin_": [
        0,
        0,
        0,
        0
    ],
    "_orientation_": 1,
    "_padding_": [
        0,
        0,
        0,
        0
    ],
    "_percent_": true,
    "_render_": true,
    "_right_": {
        "type": "number",
        "value": "0"
    },
    "_skin_": "s3096253c111453f902358ce948f532f",
    "_top_": {
        "type": "string",
        "value": "0dp"
    },
    "_width_": {
        "type": "string",
        "value": "75%"
    },
    "areflexpropsreferenced": false,
    "autogrowmode": 1,
    "canUpdateUI": true,
    "clipbounds": true,
    "containerweight": 0,
    "dataDiffs": {
        "Dropdown": {
            "__events__": {},
            "__info__": {
                "isRoot": true,
                "kuid": "ecfdb88749d64ceb918e284da29fa182",
                "srcKUID": "acfea261fe7e4f0ba70e23e8b74c6ee3",
                "wType": "FlexContainer"
            },
            "left": {
                "Default": {
                    "type": "string",
                    "value": ""
                }
            },
            "right": {
                "Default": {
                    "type": "number",
                    "value": "0"
                }
            },
            "width": {
                "Default": {
                    "type": "string",
                    "value": "75%"
                }
            }
        },
        "flxDown": {
            "__events__": {},
            "__info__": {
                "kuid": "hc3c7a299f1a44479c0ea45eb0a3f6a8",
                "srcKUID": "dae6c97605db41bd89131e6a26387908",
                "wType": "FlexContainer"
            }
        },
        "flxDropdown": {
            "__events__": {},
            "__info__": {
                "kuid": "b28ce07b872743058b93ef37d03dcd3b",
                "srcKUID": "gd0c26b4d8534c8db67ffa97fcc1cbf5",
                "wType": "FlexContainer"
            }
        },
        "flxSelectedOption": {
            "__events__": {},
            "__info__": {
                "kuid": "ieed3755a15e45e997b7ca30a43cd40f",
                "srcKUID": "ie1da4d7e3d24dad8c6c272b9d5564af",
                "wType": "FlexContainer"
            }
        },
        "imgDown": {
            "__events__": {},
            "__info__": {
                "kuid": "ac699abbfafc40c482ec60a3c269ab4c",
                "srcKUID": "b4bad14c1a864198b5d381999db8d5dd",
                "wType": "Image"
            }
        },
        "lblSelectedOption": {
            "__events__": {},
            "__info__": {
                "kuid": "ea9d3d75bb454e338d4fbc68a835130b",
                "srcKUID": "df7b48640b544b0a89f264404143df36",
                "wType": "Label"
            }
        },
        "sgmOptions": {
            "__events__": {},
            "__info__": {
                "kuid": "b37494b870a54bdcbdc7cb01adeec45e",
                "srcKUID": "c2cb230b95644179a13e772405cb4add",
                "wType": "Segment"
            },
            "data": {
                "mobile": [
                    {
                        "lblOption": {
                            "@class": "com.viz.ide.model.segment.SimpleTextSegmentData",
                            "text": "SUB AREA"
                        }
                    },
                    {
                        "lblOption": {
                            "@class": "com.viz.ide.model.segment.SimpleTextSegmentData",
                            "text": "SUB AREA"
                        }
                    },
                    {
                        "lblOption": {
                            "@class": "com.viz.ide.model.segment.SimpleTextSegmentData",
                            "text": "SUB AREA"
                        }
                    },
                    {
                        "lblOption": {
                            "@class": "com.viz.ide.model.segment.SimpleTextSegmentData",
                            "text": "SUB AREA"
                        }
                    }
                ]
            }
        }
    },
    "id": "dropDownAccount",
    "info": null,
    "iscustomlayout": false,
    "isdatareferenced": false,
    "isvisible": true,
    "kuid": "ecfdb88749d64ceb918e284da29fa182",
    "layouttype": 2,
    "masterType": 0,
    "name": "kony.ui.UserWidgetInstance",
    "parent": "flxAccount",
    "pf": "frmQuickAdd",
    "retaincontentalignment": false,
    "retainflexpositionproperties": false,
    "snaptogrid": true,
    "sourceUserWidget": "acfea261fe7e4f0ba70e23e8b74c6ee3",
    "wType": "UserWidgetInstance"
}