{
    "@class": "com.kony.gen.viz.model.component.KVizUserWidget",
    "DNDConfig": null,
    "__parentReadjusting__": false,
    "_children_": [],
    "_height_": {
        "type": "ref",
        "value": "preferred"
    },
    "_left_": {
        "type": "string",
        "value": "0dp"
    },
    "_margin_": [
        0,
        0,
        0,
        0
    ],
    "_orientation_": 1,
    "_padding_": [
        0,
        0,
        0,
        0
    ],
    "_percent_": true,
    "_render_": true,
    "_skin_": "s3096253c111453f902358ce948f532f",
    "_top_": {
        "type": "string",
        "value": "25dp"
    },
    "_width_": {
        "type": "string",
        "value": "85%"
    },
    "areflexpropsreferenced": false,
    "autogrowmode": 1,
    "canUpdateUI": true,
    "centerx": {
        "type": "string",
        "value": "50%"
    },
    "clipbounds": true,
    "containerweight": 0,
    "dataDiffs": {
        "NewNote": {
            "__events__": {},
            "__info__": {
                "isRoot": true,
                "kuid": "d41fb11ea5564941a89a3ee3c5c2039f",
                "srcKUID": "da0f4596c3dd40fe8b960f30a2f07294",
                "wType": "FlexContainer"
            },
            "centerX": {
                "Default": {
                    "type": "string",
                    "value": "50%"
                }
            },
            "top": {
                "Default": {
                    "type": "string",
                    "value": "25dp"
                }
            },
            "width": {
                "Default": {
                    "type": "string",
                    "value": "85%"
                }
            }
        },
        "flxContainer": {
            "__events__": {},
            "__info__": {
                "kuid": "f64ef31114e44f84a8891e55c23c63de",
                "srcKUID": "g6db4a0703b24cd69d5a85c54a049133",
                "wType": "FlexContainer"
            }
        },
        "flxNewNote": {
            "__events__": {},
            "__info__": {
                "kuid": "b95e2893f96a44e79c401d06d0986e14",
                "srcKUID": "f7ea2a44ba864681a51d9eea490502f7",
                "wType": "FlexContainer"
            }
        },
        "flxNote": {
            "__events__": {},
            "__info__": {
                "kuid": "b6b273b947634b73aa7dbc04f0f20a9f",
                "srcKUID": "h49726ce3b2f4fff80d773ffa20dcc3f",
                "wType": "FlexContainer"
            }
        },
        "flxNoteFilled": {
            "__events__": {},
            "__info__": {
                "kuid": "f535bb94d4314be6817d404d7cf9b2f5",
                "srcKUID": "e7f2d926360f49fd9df76372c4c3e63f",
                "wType": "FlexContainer"
            }
        },
        "flxNotesContainer": {
            "__events__": {},
            "__info__": {
                "kuid": "a22b8636987f4aee811835972defa89d",
                "srcKUID": "gaca288d877b490c99590216744bf6cd",
                "wType": "FlexContainer"
            }
        },
        "imgNote": {
            "__events__": {},
            "__info__": {
                "kuid": "c5a1facaa11f47e7b5e812ffa5ea9d37",
                "srcKUID": "g3cc168c8633486ba06bbfd30443230c",
                "wType": "Image"
            }
        },
        "lblDateNote": {
            "__events__": {},
            "__info__": {
                "kuid": "d61a2d59a53d4111a035f6115760c863",
                "srcKUID": "f608cc6ee19c483fb3804343d8ae3087",
                "wType": "Label"
            }
        },
        "lblNewNote": {
            "__events__": {},
            "__info__": {
                "kuid": "d470f6d2bf0e4e119fd4fe7a7aa4ab0c",
                "srcKUID": "i0c26f84a6ad48f1a68deb70c2f686c1",
                "wType": "Label"
            }
        },
        "lblNoteDescription": {
            "__events__": {},
            "__info__": {
                "kuid": "i48c4d319eac4f1bbaabe112985b584e",
                "srcKUID": "j59ee82e31314a52af7b848c2881d3aa",
                "wType": "Label"
            }
        },
        "lblTitleNote": {
            "__events__": {},
            "__info__": {
                "kuid": "j7d3ebd5e0244e3aaee6be53ca551918",
                "srcKUID": "e5b7074d32674747830a13c23f930d71",
                "wType": "Label"
            }
        }
    },
    "id": "NewNote",
    "info": null,
    "iscustomlayout": false,
    "isdatareferenced": false,
    "isvisible": true,
    "kuid": "d41fb11ea5564941a89a3ee3c5c2039f",
    "layouttype": 4,
    "masterType": 0,
    "name": "kony.ui.UserWidgetInstance",
    "parent": "flxNotes",
    "pf": "frmOTRSRsDetail",
    "retaincontentalignment": false,
    "retainflexpositionproperties": false,
    "snaptogrid": true,
    "sourceUserWidget": "da0f4596c3dd40fe8b960f30a2f07294",
    "wType": "UserWidgetInstance"
}