{
    "@class": "com.kony.gen.viz.model.component.KVizUserWidget",
    "DNDConfig": null,
    "__parentReadjusting__": false,
    "_children_": [],
    "_height_": {
        "type": "string",
        "value": "40dp"
    },
    "_left_": {
        "type": "string",
        "value": "0dp"
    },
    "_margin_": [
        0,
        0,
        0,
        0
    ],
    "_orientation_": 1,
    "_padding_": [
        0,
        0,
        0,
        0
    ],
    "_percent_": true,
    "_render_": true,
    "_skin_": "s2ac1c66b4aa4b4fb21cde117c103010",
    "_top_": {
        "type": "string",
        "value": "50dp"
    },
    "_width_": {
        "type": "string",
        "value": "100%"
    },
    "autogrowmode": 0,
    "canUpdateUI": true,
    "clipbounds": true,
    "containerweight": 0,
    "data": {
        "tabOneNav": "frmCLActivities",
        "tabTwoNav": "frmCLSRs",
        "text1": "Activities <sup>7</sup>",
        "text2": "SRs <sup>5</sup>"
    },
    "id": "TabNav",
    "info": null,
    "iscustomlayout": false,
    "isvisible": true,
    "kuid": "b59c6383b7354fe7a15e65afa23d33f3",
    "layouttype": 2,
    "masterType": 1,
    "name": "kony.ui.UserWidgetInstance",
    "parent": "flxScroll",
    "pf": "frmCLActivities",
    "retaincontentalignment": false,
    "retainflexpositionproperties": false,
    "snaptogrid": true,
    "sourceUserWidget": "he4e62dd53ec498c985d6f4f9849bd02",
    "wType": "UserWidgetInstance"
}