{
    "@class": "com.kony.gen.viz.model.component.KVizButton",
    "DNDConfig": null,
    "__parentReadjusting__": false,
    "_height_": {
        "type": "string",
        "value": "40dp"
    },
    "_margin_": [
        6,
        6,
        6,
        6
    ],
    "_padding_": [
        0,
        0,
        0,
        0
    ],
    "_right_": {
        "type": "string",
        "value": "7.50%"
    },
    "_skin_": "sf00a519470a4950b22b77589d385432",
    "_text_": "SAVE",
    "_top_": {
        "type": "string",
        "value": "0dp"
    },
    "_width_": {
        "type": "string",
        "value": "41%"
    },
    "canUpdateUI": true,
    "containerweight": 100,
    "contentalignment": 5,
    "displaytext": true,
    "focusskin": "sf00a519470a4950b22b77589d385432",
    "id": "btnSave",
    "info": null,
    "iscustomlayout": false,
    "isvisible": true,
    "kuid": "dc34e42a74594a6e806329e6b5b1a098",
    "name": "kony.ui.Button",
    "parent": "flxButtons",
    "pf": "frmCLSRsDetail",
    "retaincontentalignment": false,
    "retainflexpositionproperties": false,
    "wType": "Button",
    "zindex": 1
}