{
    "@class": "com.kony.gen.viz.model.component.KVizButton",
    "DNDConfig": null,
    "__parentReadjusting__": false,
    "_height_": {
        "type": "string",
        "value": "40dp"
    },
    "_left_": {
        "type": "string",
        "value": "7.50%"
    },
    "_margin_": [
        6,
        6,
        6,
        6
    ],
    "_padding_": [
        0,
        0,
        0,
        0
    ],
    "_skin_": "s7f26aac983c498f9cc384bf695cb2f0",
    "_text_": "SUBMIT",
    "_top_": {
        "type": "string",
        "value": "0dp"
    },
    "_width_": {
        "type": "string",
        "value": "41%"
    },
    "canUpdateUI": true,
    "containerweight": 100,
    "contentalignment": 5,
    "displaytext": true,
    "focusskin": "s14b4c7f249a4661bb91230d9a4e3ef6",
    "id": "btnSubmit",
    "info": null,
    "iscustomlayout": false,
    "isvisible": true,
    "kuid": "ha6773e2d9ac48c5914ba8bbd7a957bf",
    "name": "kony.ui.Button",
    "parent": "flxButtons",
    "pf": "frmOTRActivityDetail",
    "retaincontentalignment": false,
    "retainflexpositionproperties": false,
    "wType": "Button",
    "zindex": 1
}