{
    "@class": "com.kony.gen.viz.model.component.KVizUserWidget",
    "DNDConfig": null,
    "__parentReadjusting__": false,
    "_children_": [],
    "_height_": {
        "type": "string",
        "value": "85dp"
    },
    "_left_": {
        "type": "string",
        "value": "0dp"
    },
    "_margin_": [
        0,
        0,
        0,
        0
    ],
    "_orientation_": 1,
    "_padding_": [
        0,
        0,
        0,
        0
    ],
    "_percent_": true,
    "_render_": true,
    "_skin_": "s2ac1c66b4aa4b4fb21cde117c103010",
    "_top_": {
        "type": "string",
        "value": "0dp"
    },
    "_width_": {
        "type": "string",
        "value": "100%"
    },
    "autogrowmode": 0,
    "canUpdateUI": true,
    "clipbounds": true,
    "containerweight": 0,
    "data": {
        "customNavOnBack": "",
        "text": "Activities",
        "tittleText": "New Client - EE OT"
    },
    "id": "titleHeader",
    "info": null,
    "iscustomlayout": false,
    "isvisible": true,
    "kuid": "ac4d843e5bf14cf5ac1bd3393ede956e",
    "layouttype": 2,
    "masterType": 1,
    "name": "kony.ui.UserWidgetInstance",
    "parent": "flxContent",
    "pf": "frmOTRActivityDetail",
    "retaincontentalignment": false,
    "retainflexpositionproperties": false,
    "snaptogrid": true,
    "sourceUserWidget": "b4e525b06b41460e98f0f5cfc79ac5eb",
    "wType": "UserWidgetInstance"
}