{
    "classname": "footerNav",
    "definitions": {
        "apis": {
            "custom": [],
            "passthrough": []
        },
        "events": {
            "custom": [],
            "passthrough": []
        },
        "groups": {
            "apis": [],
            "events": [],
            "properties": [],
            "widgets": []
        },
        "properties": {
            "custom": [
                {
                    "access": "Write",
                    "defaultValue": "meetings",
                    "group": "General",
                    "kuid": "a099cc6d103041f282206e7e8d43ae37",
                    "originalPropertyKey": "actualScreen",
                    "propertyIndex": 1,
                    "propertyKey": "actualScreen",
                    "pw": {
                        "displayName": "Actual Screen",
                        "uiRepresentation": "Label-Combobox"
                    },
                    "srcWgtKUID": "dae42bbec2864cfdb6628dc54c9dbfb7",
                    "type": "list selector",
                    "value": [
                        "meetings",
                        "activities"
                    ]
                }
            ],
            "passthrough": []
        },
        "widgets": {
            "expose": [],
            "passthrough": []
        }
    },
    "namespace": "OTR",
    "version": "1.0.0"
}