{
    "AS_Segment_f6accaf51f1744b1a2e83ef37ea77ee1": {
        "id": "AS_Segment_f6accaf51f1744b1a2e83ef37ea77ee1",
        "type": "ACTION_SEQUENCE",
        "params": [{
            "datatype": "collection",
            "name": "eventobject"
        }, {
            "datatype": "number",
            "name": "sectionNumber"
        }, {
            "datatype": "number",
            "name": "rowNumber"
        }],
        "contextObj": {
            "name": "frmCLActivities",
            "type": "forms",
            "platform": "",
            "KUID": "f0d567af83fe44da8730eec4124ed755"
        },
        "language": "js",
        "actions": [{
            "id": "SET_FORM_WIDGET_PROPERTY____jd303e950cae4dc2aba19e69a91634d2",
            "type": "SET_WIDGET_PROPERTY",
            "itemType": "FORM",
            "itemId": "frmCLActivities",
            "widgetId": "sgmActivities",
            "propertyName": "data",
            "propertyValue": [{
                "lblTitle": {
                    "text": "ABC Widgets - 3001200",
                    "@class": "com.viz.ide.model.segment.SimpleTextSegmentData"
                },
                "lblStatus": {
                    "text": "In progress",
                    "@class": "com.viz.ide.model.segment.SimpleTextSegmentData"
                },
                "lblAreaTag": {
                    "text": "Area",
                    "@class": "com.viz.ide.model.segment.SimpleTextSegmentData"
                },
                "lblArea": {
                    "text": "Client Management",
                    "@class": "com.viz.ide.model.segment.SimpleTextSegmentData"
                },
                "lblSubAreaTag": {
                    "text": "Sub-area",
                    "@class": "com.viz.ide.model.segment.SimpleTextSegmentData"
                },
                "lblSubArea": {
                    "text": "Quality Proactive Touch Point",
                    "@class": "com.viz.ide.model.segment.SimpleTextSegmentData"
                },
                "lblStartTag": {
                    "text": "Start",
                    "@class": "com.viz.ide.model.segment.SimpleTextSegmentData"
                },
                "lblStart": {
                    "text": "09-16-2017",
                    "@class": "com.viz.ide.model.segment.SimpleTextSegmentData"
                },
                "lblDueDateTag": {
                    "text": "Due date",
                    "@class": "com.viz.ide.model.segment.SimpleTextSegmentData"
                },
                "lblDueDate": {
                    "text": "11-15-2017",
                    "@class": "com.viz.ide.model.segment.SimpleTextSegmentData"
                },
                "btnQuickUpdate": {
                    "text": "QUICK UPDATE",
                    "@class": "com.viz.ide.model.segment.SimpleTextSegmentData"
                }
            }, {
                "lblTitle": {
                    "text": "ABC Widgets - 3001200",
                    "@class": "com.viz.ide.model.segment.SimpleTextSegmentData"
                },
                "lblStatus": {
                    "text": "In progress",
                    "@class": "com.viz.ide.model.segment.SimpleTextSegmentData"
                },
                "lblAreaTag": {
                    "text": "Area",
                    "@class": "com.viz.ide.model.segment.SimpleTextSegmentData"
                },
                "lblArea": {
                    "text": "Client Management",
                    "@class": "com.viz.ide.model.segment.SimpleTextSegmentData"
                },
                "lblSubAreaTag": {
                    "text": "Sub-area",
                    "@class": "com.viz.ide.model.segment.SimpleTextSegmentData"
                },
                "lblSubArea": {
                    "text": "Quality Proactive Touch Point",
                    "@class": "com.viz.ide.model.segment.SimpleTextSegmentData"
                },
                "lblStartTag": {
                    "text": "Start",
                    "@class": "com.viz.ide.model.segment.SimpleTextSegmentData"
                },
                "lblStart": {
                    "text": "09-16-2017",
                    "@class": "com.viz.ide.model.segment.SimpleTextSegmentData"
                },
                "lblDueDateTag": {
                    "text": "Due date",
                    "@class": "com.viz.ide.model.segment.SimpleTextSegmentData"
                },
                "lblDueDate": {
                    "text": "11-15-2017",
                    "@class": "com.viz.ide.model.segment.SimpleTextSegmentData"
                },
                "btnQuickUpdate": {
                    "text": "QUICK UPDATE",
                    "@class": "com.viz.ide.model.segment.SimpleTextSegmentData"
                }
            }, {
                "lblTitle": {
                    "text": "ABC Widgets - 3001200",
                    "@class": "com.viz.ide.model.segment.SimpleTextSegmentData"
                },
                "lblStatus": {
                    "text": "In progress",
                    "@class": "com.viz.ide.model.segment.SimpleTextSegmentData"
                },
                "lblAreaTag": {
                    "text": "Area",
                    "@class": "com.viz.ide.model.segment.SimpleTextSegmentData"
                },
                "lblArea": {
                    "text": "Client Management",
                    "@class": "com.viz.ide.model.segment.SimpleTextSegmentData"
                },
                "lblSubAreaTag": {
                    "text": "Sub-area",
                    "@class": "com.viz.ide.model.segment.SimpleTextSegmentData"
                },
                "lblSubArea": {
                    "text": "Quality Proactive Touch Point",
                    "@class": "com.viz.ide.model.segment.SimpleTextSegmentData"
                },
                "lblStartTag": {
                    "text": "Start",
                    "@class": "com.viz.ide.model.segment.SimpleTextSegmentData"
                },
                "lblStart": {
                    "text": "09-16-2017",
                    "@class": "com.viz.ide.model.segment.SimpleTextSegmentData"
                },
                "lblDueDateTag": {
                    "text": "Due date",
                    "@class": "com.viz.ide.model.segment.SimpleTextSegmentData"
                },
                "lblDueDate": {
                    "text": "11-15-2017",
                    "@class": "com.viz.ide.model.segment.SimpleTextSegmentData"
                },
                "btnQuickUpdate": {
                    "text": "QUICK UPDATE",
                    "@class": "com.viz.ide.model.segment.SimpleTextSegmentData"
                }
            }],
            "additionalPropertyKeyValues": {},
            "itemKUID": "f0d567af83fe44da8730eec4124ed755",
            "widgetKUID": "d7696295c533402985b729adba5cebff",
            "skinKUID": [],
            "isSkinProperty": false,
            "wType": "Segment",
            "forkedPlatform": "all",
            "parentId": null,
            "callbackType": null,
            "widgetPath": "this.view.sgmActivities"
        }]
    }
}