{
    "@class": "com.kony.gen.viz.model.component.KVizRichText",
    "DNDConfig": null,
    "__parentReadjusting__": false,
    "_height_": {
        "type": "string",
        "value": "100%"
    },
    "_margin_": [
        0,
        0,
        0,
        0
    ],
    "_padding_": [
        0,
        0,
        0,
        0
    ],
    "_skin_": "sf3f37066dfa4dd2b7fd46305655c296",
    "_text_": "Open Activities <sup>2</sup>",
    "_width_": {
        "type": "string",
        "value": "100%"
    },
    "_wrapping_": 2,
    "canUpdateUI": true,
    "centerx": {
        "type": "string",
        "value": "50%"
    },
    "centery": {
        "type": "string",
        "value": "50%"
    },
    "containerweight": 100,
    "contentalignment": 5,
    "id": "richTxtTab1",
    "info": null,
    "iscustomlayout": false,
    "isvisible": true,
    "kuid": "jbe5db03ead6477fb1b85e03bbadca78",
    "linkskin": "sb49565728b5405a80e728f78d28468b",
    "name": "kony.ui.RichText",
    "parent": "flxTab1",
    "pf": "userwidgetmodel",
    "retaincontentalignment": false,
    "retainflexpositionproperties": false,
    "wType": "RichText",
    "widgetalignment": 5,
    "zindex": 1
}