{
    "@class": "com.kony.gen.viz.model.component.KVizUserWidget",
    "DNDConfig": null,
    "__parentReadjusting__": false,
    "_children_": [],
    "_height_": {
        "type": "string",
        "value": "85dp"
    },
    "_left_": {
        "type": "string",
        "value": "0dp"
    },
    "_margin_": [
        0,
        0,
        0,
        0
    ],
    "_orientation_": 1,
    "_padding_": [
        0,
        0,
        0,
        0
    ],
    "_percent_": true,
    "_render_": true,
    "_skin_": "s3096253c111453f902358ce948f532f",
    "_top_": {
        "type": "string",
        "value": "0dp"
    },
    "_width_": {
        "type": "string",
        "value": "100%"
    },
    "areflexpropsreferenced": false,
    "canUpdateUI": true,
    "clipbounds": true,
    "containerweight": 0,
    "dataDiffs": {
        "AlertComponent": {
            "__events__": {},
            "__info__": {
                "isRoot": true,
                "kuid": "c8411c3511114626a078a5e2336be1e3",
                "srcKUID": "abbd3b19610949d0b46f5b1614c522f8",
                "wType": "FlexContainer"
            },
            "isVisible": false
        },
        "flexAlertContainer": {
            "__events__": {},
            "__info__": {
                "kuid": "jebde17538d743cb8e4579665c3c225e",
                "srcKUID": "efff0bde37e94b7a857585f0e47aafae",
                "wType": "FlexContainer"
            }
        },
        "flxImage": {
            "__events__": {},
            "__info__": {
                "kuid": "dc1364e39f1746c7a5395f8443dcbb9b",
                "srcKUID": "af1aa22d3de54d339414184349321bf9",
                "wType": "FlexContainer"
            }
        },
        "imgLeft": {
            "__events__": {},
            "__info__": {
                "kuid": "c2528396fcef46c49f34c1d783c785cd",
                "srcKUID": "ad727373749b459eba556a9139b25412",
                "wType": "Image"
            }
        },
        "lblMessage": {
            "__events__": {},
            "__info__": {
                "kuid": "e7ca0cb753254a3e999f4ddd501682d9",
                "srcKUID": "e217bdbf8a754661a2f67a6e30e8343e",
                "wType": "Label"
            }
        }
    },
    "id": "AlertComponent",
    "info": null,
    "iscustomlayout": false,
    "isdatareferenced": false,
    "isvisible": false,
    "kuid": "c8411c3511114626a078a5e2336be1e3",
    "layouttype": 2,
    "masterType": 0,
    "name": "kony.ui.UserWidgetInstance",
    "parent": "flxOTRActivities",
    "pf": "frmOTRActivities",
    "retaincontentalignment": false,
    "retainflexpositionproperties": false,
    "snaptogrid": true,
    "sourceUserWidget": "abbd3b19610949d0b46f5b1614c522f8",
    "wType": "UserWidgetInstance",
    "zindex": 3
}