{
    "DNDConfig": null,
    "__parentReadjusting__": false,
    "_height_": {
        "type": "string",
        "value": "100%"
    },
    "_left_": {
        "type": "string",
        "value": "0dp"
    },
    "_margin_": [
        0,
        0,
        0,
        0
    ],
    "_orientation_": 6,
    "_padding_": [
        0,
        0,
        0,
        0
    ],
    "_percent_": true,
    "_skin_": "s1cbab3e063a461eb882017bf9b7e6a5",
    "_top_": {
        "type": "string",
        "value": "0dp"
    },
    "_width_": {
        "type": "string",
        "value": "100%"
    },
    "allboxes": [],
    "canUpdateUI": true,
    "children": [
        "OneVoiceHeader",
        "TabNav",
        "SearchBar",
        "SortByDropdown",
        "flxSgmActivitiesContainer"
    ],
    "clipbounds": true,
    "containerweight": 100,
    "enablescrolling": true,
    "id": "flxScroll",
    "info": null,
    "iscustomlayout": false,
    "isvisible": true,
    "kuid": "f447f0db667047c6b763ca133e6424e0",
    "layouttype": 2,
    "name": "kony.ui.FlexContainer",
    "parent": "flxOTRActivities",
    "pf": "frmOTRActivities",
    "retaincontentalignment": false,
    "retainflexpositionproperties": false,
    "snapgridsize": 10,
    "snaptogrid": true,
    "vizProps": {},
    "wType": "FlexContainer",
    "widgetalignment": 1
}