{
    "@class": "com.kony.gen.viz.model.component.KVizUserWidget",
    "DNDConfig": null,
    "__parentReadjusting__": false,
    "_children_": [],
    "_height_": {
        "type": "string",
        "value": "60dp"
    },
    "_left_": {
        "type": "string",
        "value": "0dp"
    },
    "_margin_": [
        0,
        0,
        0,
        0
    ],
    "_orientation_": 1,
    "_padding_": [
        0,
        0,
        0,
        0
    ],
    "_percent_": true,
    "_render_": true,
    "_skin_": "s149f1db67de45e3b13b38a7ea503fdf",
    "_top_": {
        "type": "string",
        "value": "90dp"
    },
    "_width_": {
        "type": "string",
        "value": "100%"
    },
    "areflexpropsreferenced": false,
    "canUpdateUI": true,
    "clipbounds": true,
    "containerweight": 0,
    "dataDiffs": {
        "SearchBar": {
            "__events__": {},
            "__info__": {
                "isRoot": true,
                "kuid": "gf9ea54b2d9340e98cb3e5e0d1fada73",
                "srcKUID": "j8537964937f43a3a5dbd3e9c449d980",
                "wType": "FlexContainer"
            },
            "top": {
                "Default": {
                    "type": "string",
                    "value": "90dp"
                }
            }
        },
        "flxSearchBar": {
            "__events__": {},
            "__info__": {
                "kuid": "a75124cfba014c5a9e0623d84f8a1411",
                "srcKUID": "b09cb445ede54391b543e525f75bb833",
                "wType": "FlexContainer"
            }
        },
        "flxSearchIcon": {
            "__events__": {},
            "__info__": {
                "kuid": "bf5991b7436e459493f6c11a24cce1f8",
                "srcKUID": "hf582dff7e4a4a9ca9aa41c2b7e565d1",
                "wType": "FlexContainer"
            }
        },
        "imgSearchIcon": {
            "__events__": {},
            "__info__": {
                "kuid": "fef0bd57c4674ee7ac8524b2fa6d2185",
                "srcKUID": "b52346df555b4f2abf34b3afa6d76c5d",
                "wType": "Image"
            }
        },
        "txtBoxSearch": {
            "__events__": {},
            "__info__": {
                "kuid": "f70937c497fe45a7a30f3d0fe4ba6514",
                "srcKUID": "a9055113a787463c8f8b7f00c13c4bc5",
                "wType": "TextField"
            }
        }
    },
    "id": "SearchBar",
    "info": null,
    "iscustomlayout": false,
    "isdatareferenced": false,
    "isvisible": true,
    "kuid": "gf9ea54b2d9340e98cb3e5e0d1fada73",
    "layouttype": 2,
    "masterType": 0,
    "name": "kony.ui.UserWidgetInstance",
    "parent": "flxScroll",
    "pf": "frmCLSRs",
    "retaincontentalignment": false,
    "retainflexpositionproperties": false,
    "snaptogrid": true,
    "sourceUserWidget": "j8537964937f43a3a5dbd3e9c449d980",
    "wType": "UserWidgetInstance",
    "zindex": 1
}