{
    "@class": "com.kony.gen.viz.model.container.KVizSegment2",
    "DNDConfig": null,
    "__parentReadjusting__": false,
    "_bounces_": false,
    "_data_": [
        {
            "btnQuickUpdate": {
                "@class": "com.viz.ide.model.segment.SimpleTextSegmentData",
                "text": "QUICK UPDATE"
            },
            "lblArea": {
                "@class": "com.viz.ide.model.segment.SimpleTextSegmentData",
                "text": "COBRA"
            },
            "lblAreaTag": {
                "@class": "com.viz.ide.model.segment.SimpleTextSegmentData",
                "text": "Area"
            },
            "lblBottomPadding": {
                "@class": "com.viz.ide.model.segment.SimpleTextSegmentData",
                "text": " "
            },
            "lblLine": {
                "@class": "com.viz.ide.model.segment.SimpleTextSegmentData",
                "text": " "
            },
            "lblOpenDate": {
                "@class": "com.viz.ide.model.segment.SimpleTextSegmentData",
                "text": "11-15-2017"
            },
            "lblOpenDateTag": {
                "@class": "com.viz.ide.model.segment.SimpleTextSegmentData",
                "text": "Open Date"
            },
            "lblQuickUpdate": {
                "@class": "com.viz.ide.model.segment.SimpleTextSegmentData",
                "text": "QUICK UPDATE"
            },
            "lblStatus": {
                "@class": "com.viz.ide.model.segment.SimpleTextSegmentData",
                "text": "Pending"
            },
            "lblSubArea": {
                "@class": "com.viz.ide.model.segment.SimpleTextSegmentData",
                "text": "Takeover Verify & Submission"
            },
            "lblSubAreaTag": {
                "@class": "com.viz.ide.model.segment.SimpleTextSegmentData",
                "text": "Sub-area"
            },
            "lblSubStatus": {
                "@class": "com.viz.ide.model.segment.SimpleTextSegmentData",
                "text": "ABU- Enrolled"
            },
            "lblSubStatusTag": {
                "@class": "com.viz.ide.model.segment.SimpleTextSegmentData",
                "text": "Sub-status"
            },
            "lblTitle": {
                "@class": "com.viz.ide.model.segment.SimpleTextSegmentData",
                "text": "ABC Widgets - 3001200"
            }
        },
        {
            "btnQuickUpdate": {
                "@class": "com.viz.ide.model.segment.SimpleTextSegmentData",
                "text": "QUICK UPDATE"
            },
            "lblArea": {
                "@class": "com.viz.ide.model.segment.SimpleTextSegmentData",
                "text": "COBRA"
            },
            "lblAreaTag": {
                "@class": "com.viz.ide.model.segment.SimpleTextSegmentData",
                "text": "Area"
            },
            "lblBottomPadding": {
                "@class": "com.viz.ide.model.segment.SimpleTextSegmentData",
                "text": " "
            },
            "lblLine": {
                "@class": "com.viz.ide.model.segment.SimpleTextSegmentData",
                "text": " "
            },
            "lblOpenDate": {
                "@class": "com.viz.ide.model.segment.SimpleTextSegmentData",
                "text": "11-15-2017"
            },
            "lblOpenDateTag": {
                "@class": "com.viz.ide.model.segment.SimpleTextSegmentData",
                "text": "Open Date"
            },
            "lblQuickUpdate": {
                "@class": "com.viz.ide.model.segment.SimpleTextSegmentData",
                "text": "QUICK UPDATE"
            },
            "lblStatus": {
                "@class": "com.viz.ide.model.segment.SimpleTextSegmentData",
                "text": "Pending"
            },
            "lblSubArea": {
                "@class": "com.viz.ide.model.segment.SimpleTextSegmentData",
                "text": "Takeover Verify & Submission"
            },
            "lblSubAreaTag": {
                "@class": "com.viz.ide.model.segment.SimpleTextSegmentData",
                "text": "Sub-area"
            },
            "lblSubStatus": {
                "@class": "com.viz.ide.model.segment.SimpleTextSegmentData",
                "text": "ABU- Enrolled"
            },
            "lblSubStatusTag": {
                "@class": "com.viz.ide.model.segment.SimpleTextSegmentData",
                "text": "Sub-status"
            },
            "lblTitle": {
                "@class": "com.viz.ide.model.segment.SimpleTextSegmentData",
                "text": "ABC Widgets - 3001200"
            }
        },
        {
            "btnQuickUpdate": {
                "@class": "com.viz.ide.model.segment.SimpleTextSegmentData",
                "text": "QUICK UPDATE"
            },
            "lblArea": {
                "@class": "com.viz.ide.model.segment.SimpleTextSegmentData",
                "text": "COBRA"
            },
            "lblAreaTag": {
                "@class": "com.viz.ide.model.segment.SimpleTextSegmentData",
                "text": "Area"
            },
            "lblBottomPadding": {
                "@class": "com.viz.ide.model.segment.SimpleTextSegmentData",
                "text": " "
            },
            "lblLine": {
                "@class": "com.viz.ide.model.segment.SimpleTextSegmentData",
                "text": " "
            },
            "lblOpenDate": {
                "@class": "com.viz.ide.model.segment.SimpleTextSegmentData",
                "text": "11-15-2017"
            },
            "lblOpenDateTag": {
                "@class": "com.viz.ide.model.segment.SimpleTextSegmentData",
                "text": "Open Date"
            },
            "lblQuickUpdate": {
                "@class": "com.viz.ide.model.segment.SimpleTextSegmentData",
                "text": "QUICK UPDATE"
            },
            "lblStatus": {
                "@class": "com.viz.ide.model.segment.SimpleTextSegmentData",
                "text": "Pending"
            },
            "lblSubArea": {
                "@class": "com.viz.ide.model.segment.SimpleTextSegmentData",
                "text": "Takeover Verify & Submission"
            },
            "lblSubAreaTag": {
                "@class": "com.viz.ide.model.segment.SimpleTextSegmentData",
                "text": "Sub-area"
            },
            "lblSubStatus": {
                "@class": "com.viz.ide.model.segment.SimpleTextSegmentData",
                "text": "ABU- Enrolled"
            },
            "lblSubStatusTag": {
                "@class": "com.viz.ide.model.segment.SimpleTextSegmentData",
                "text": "Sub-status"
            },
            "lblTitle": {
                "@class": "com.viz.ide.model.segment.SimpleTextSegmentData",
                "text": "ABC Widgets - 3001200"
            }
        }
    ],
    "_height_": {
        "type": "string",
        "value": "100%"
    },
    "_indicator_": "none",
    "_left_": {
        "type": "string",
        "value": "0dp"
    },
    "_margin_": [
        0,
        0,
        0,
        0
    ],
    "_orientation_": 2,
    "_padding_": [
        0,
        0,
        0,
        0
    ],
    "_top_": {
        "type": "string",
        "value": "0dp"
    },
    "_width_": {
        "type": "string",
        "value": "100%"
    },
    "autogrowmode": 0,
    "canUpdateUI": true,
    "containerweight": 100,
    "counter": "02",
    "focusedindex": null,
    "focuseditem": null,
    "groupcells": false,
    "hasSections": false,
    "id": "sgmSRs",
    "info": null,
    "ipad": {
        "psp": {
            "indicator": "rowselect"
        }
    },
    "iphone": {
        "psp": {
            "bounces": false,
            "indicator": "none"
        }
    },
    "iscustomlayout": false,
    "isvisible": true,
    "kuid": "ea5d07f81a2d4556b9749ef6509fe300",
    "masterdata": {},
    "name": "kony.ui.SegmentedUI2",
    "needpageindicator": true,
    "pageoffdotimage": "pageoffdot.png",
    "pageondotimage": "pageondot.png",
    "paginationconfig": {
        "position": "bottom"
    },
    "parent": "flxSgmSRsContainer",
    "pf": "frmCLSRs",
    "retaincontentalignment": false,
    "retainflexpositionproperties": false,
    "retainselection": false,
    "rowTemplateId": "a0fdd469d9434b79b803dbfa97dd9936",
    "rowcounter": 2,
    "rowfocusskin": "s5aa96d263f94d2b9bd9ebbc957202ad",
    "rowskin": "s5aa96d263f94d2b9bd9ebbc957202ad",
    "rowtemplate": "flxSRsWithTitle",
    "screenlevelwidget": false,
    "seccounter": 0,
    "sectionheaderskin": "s6415bd88c07484489e217f018b15915",
    "selectedRows": null,
    "selectedState": false,
    "selectedindex": null,
    "selectedindices": null,
    "selecteditems": null,
    "selectedsectionindex": null,
    "selectionbehavior": "default",
    "separatorrequired": false,
    "showscrollbars": false,
    "viewtype": "tableview",
    "wType": "Segment",
    "widgetalignment": 5,
    "widgetdatamap": {
        "btnQuickUpdate": "btnQuickUpdate",
        "flxArea": "flxArea",
        "flxDataContainer": "flxDataContainer",
        "flxOpenDate": "flxOpenDate",
        "flxRowContainer": "flxRowContainer",
        "flxSRsWithTitle": "flxSRsWithTitle",
        "flxSubArea": "flxSubArea",
        "flxSubStatus": "flxSubStatus",
        "lblArea": "lblArea",
        "lblAreaTag": "lblAreaTag",
        "lblBottomPadding": "lblBottomPadding",
        "lblLine": "lblLine",
        "lblOpenDate": "lblOpenDate",
        "lblOpenDateTag": "lblOpenDateTag",
        "lblQuickUpdate": "lblQuickUpdate",
        "lblStatus": "lblStatus",
        "lblSubArea": "lblSubArea",
        "lblSubAreaTag": "lblSubAreaTag",
        "lblSubStatus": "lblSubStatus",
        "lblSubStatusTag": "lblSubStatusTag",
        "lblTitle": "lblTitle"
    },
    "zindex": 1
}